module git.sr.ht/~rumpelsepp/speedtest

go 1.14

require (
	github.com/cpuguy83/go-md2man/v2 v2.0.0 // indirect
	github.com/dchest/uniuri v0.0.0-20200228104902-7aecb25e1fe5
	github.com/fsnotify/fsnotify v1.4.9 // indirect
	github.com/mitchellh/mapstructure v1.3.3 // indirect
	github.com/pelletier/go-toml v1.8.0 // indirect
	github.com/spf13/afero v1.3.2 // indirect
	github.com/spf13/cast v1.3.1 // indirect
	github.com/spf13/jwalterweatherman v1.1.0 // indirect
	github.com/spf13/pflag v1.0.5 // indirect
	github.com/spf13/viper v1.7.0
	github.com/stretchr/testify v1.4.0
	github.com/urfave/cli v1.22.4
	golang.org/x/sys v0.0.0-20200728102440-3e129f6d46b1 // indirect
	golang.org/x/text v0.3.3 // indirect
	gopkg.in/ini.v1 v1.57.0 // indirect
)
